<?xml version="1.0" encoding="utf-8"?>
<!-- Generator: Adobe Illustrator 18.1.0, SVG Export Plug-In . SVG Version: 6.00 Build 0)  -->
<svg version="1.1" id="Layer_1" xmlns="http://www.w3.org/2000/svg" xmlns:xlink="http://www.w3.org/1999/xlink" x="0px" y="0px"
	 viewBox="0 0 197.4 197.4" enable-background="new 0 0 197.4 197.4" xml:space="preserve">
<circle fill="#7AC25B" cx="98.7" cy="98.7" r="98.7"/>
<g>
	<path fill="#FFFFFF" d="M77.5,94.7c1.7,0.2,6.5,0.7,9,0c2.5-0.7,1.8,0.6,2.1,1.3c0.3,0.7,1.3,0.7,2.9,0c1.5-0.7,2.7-0.2,2.8,1.2
		c0.1,1.4-1.4,3.2,0.5,3.6c2,0.4,7.2,1.8,7.6,4.2c0.4,2.5,1,4.2-2,4.4c-3,0.2-7.1-0.3-7.9-2c-0.8-1.7-1.2-5.6-3-5.6
		c-1.8,0.1-0.7,1.5-1.9,2.1c-1,0.6-6,2.8-11.1,1c-0.9-0.3-1.5-1.1-1.6-2.1c-0.1-2.3,0.9-2.8,0.9-3.5C75.8,98.7,74.7,94.3,77.5,94.7z
		"/>
	<path fill="#FFFFFF" d="M77.8,83.5c0,0-0.3,5.1-0.8,6.3c-0.6,1.2-0.8,2.1,0.4,2.4c1.2,0.3,7,1.8,10,0.9c1.7-0.9,1.5-0.8,1.3-2.2
		c-0.1-1.4,0.9-1.7,1.6-1.6c0.7,0.1,1.7,2.3,2.5,3.8c0.8,1.5,3.5,6.5,6.1,7.4s3.2,0.8,4.3-0.9c1-1.7,1.5-4.7,0-6.1s-6.7-2.8-8-4.4
		c0.6-2,2-1.7,1.2-3.6c-0.8-1.9-1.9-2.1-3.2-1.5c-1.3,0.6-2.6,0.3-2.9-0.4c0,0,0,0,0,0c-0.3-0.7-1-1.2-1.7-1.2
		c-4.1,0-5.8-0.4-8.3-1.2C80.4,81.2,78.1,80.5,77.8,83.5z"/>
	<path fill="#FFFFFF" d="M81.5,71.2c0.2,0.7-0.6,4.4-1.3,5.4s-1.7,2.3-0.9,2.7c0.7,0.4,6.8,2.6,10.2,2.4c0.7,0,1.3-0.6,1.5-1.3
		c0.1-0.3,0.1-0.6,0.2-0.8c0.3-0.5,2.1-1,2.5-0.3c0.4,0.8,1.8,3.4,2.9,4.3c1,0.9,1,2.1,2.6,4.3c1.7,2.1,4.3,3.1,5.6,2.2
		c1.3-0.9,2.3-5,2.1-6.4c-0.3-1.5-0.3-5.3-3.4-6.8c-3.2-1.5-4.3-0.8-5.6-0.8c-1.2,0,0.8-1.9-0.3-2.9c-1.1-1-1.6-0.9-3-1
		c-1.4-0.1-1.2-1.2-2.1-1.4c-0.9-0.3-7.8-0.9-9.1-1.6C82,68.4,81.2,70,81.5,71.2z"/>
	<path fill="#FFFFFF" d="M84.3,59.2c0.1,0.8,0.3,4.9-0.3,5.7c-0.6,0.8-1.7,1.8-1.1,2.2c0.6,0.4,4.9,2.3,10.3,2.5
		c1.4-1.2,1.2-1.9,1.5-2.9c0.3-1,0.8-1.2,1.7-0.3s1.1,5.4,3,6.7c1.9,1.3,4.9,3.9,6.7,3.2c1.9-0.7,3-0.9,2.3-4.3
		c-0.6-3.4-1.2-4.7-3-5.8s-3.3-0.5-4.7-1.7c-1.4-1.2-0.6-4.3-1.4-4.3c-0.8-0.1-2.4,1.2-3.1,0.3c-0.7-0.9-1.8-2.3-2.7-2.1
		s-7.2-1.9-8.3-1.3C84.2,57.7,84.3,58.8,84.3,59.2z"/>
	<path fill="#FFFFFF" d="M86.7,47.2c-0.4,0.6,0.1,3.4-0.4,5c-0.5,1.7-1.3,2.3-0.4,2.8c0.9,0.6,0.3-0.3,3.6,0.6s4.9,2.3,6.2,2.3
		c1.3,0,1.1-2.3,1.8-2.3c0.8,0,3.5,0.2,3.7,2.3c0.2,2.1,2.2,5.8,4.1,6.3c1.9,0.5,4.5,1.7,4.9-1c0.4-2.6,1.2-3,0-5.4
		c-1.2-2.3-2.4-3.2-5.1-3.9c-2.7-0.8-3.4-2.6-3.8-3.8c-0.4-1.2-1.9-1.7-2.7-1c-0.8,0.8-1-2-1.7-2c-0.7,0-6.7-1.2-7.7-1
		C88.3,46.4,87.6,46,86.7,47.2z"/>
	<path fill="#FFFFFF" d="M86.9,39.9c0,0,0.8,3.1,0.6,4.1c-0.2,1,0,1.5,1.4,1.5c1.4,0,3.6-1.1,5.4-0.5c1.7,0.6,2.9,1.9,3.6,1.9
		c0.8,0.1,3-2.3,3.4-2c0.5,0.3,1.8,4.6,3,5.3c1.2,0.7,5.6,3.1,7,1.2c1.4-1.9,1.5-6.5,1-8.1c-0.5-1.5-4.5-4.7-7.5-4.3
		c-3,0.4-5.2,0-5.1-0.6c0.1-0.6-2-3-2.7-1.8c-0.7,1.2-8-1.4-8.9-0.3C87.3,37.5,86.7,39,86.9,39.9z"/>
	<path fill="#FFFFFF" d="M75.2,110.6c-0.3,0.6,0.4,4.9,1.3,6.5c0.9,1.6,1.6,2.2,3.9,1c2.3-1.2,3-1.4,5.9-2c2.9-0.6,3.6-1.9,2.9-3.1
		c-0.8-1.2,1-1.4,1.6-0.8c0.6,0.6-0.5,2.8,2.6,3.7c3.1,0.9,6.8,2.2,8.5,0.8c1.7-1.4,2.9-2.3,0.8-4.3s-8.1-1.6-9.2-2.7
		c-1.1-1.1-2.7-2.7-4-3c-1.3-0.3-1.8,0.1-2.2,1c-0.3,1-1.7-0.2-1.9-0.4C85.3,107,77,107.3,75.2,110.6z"/>
	<path fill="#FFFFFF" d="M81.3,121.5c-0.5,1.4-2.3,2.6,0,3.7c2.3,1.1,3.5-0.5,6.6,1.9c3.1,2.4,8.7,5.4,9.4,7.6
		c0.7,2.3,2.8,4.7,3.5,6.8c0.7,2.1,0.7,2.7,0.9,5.1c0.2,2.4,1,4.6,0,6.5c-1,1.9-3.2,6.6-3,7.8c0.2,1.2,3.9-1.3,5.6-3.8
		c1.7-2.5,2.3-1.9,2.8-5.6c0.5-3.7,0.9-2.5,0.9-6.1c0-3.6-2.6-7.6-2.7-9.2c-0.1-1.5-2-6-3.2-7.9c-1.2-2-2.8-5.2-3.6-6.8
		c-0.8-1.7-1.7-2.6-3.6-3.7c-2-1.1-3.5-2.5-5.4-1.4s-5.4,1.8-6.1,2.3C82.6,119.2,81.5,121,81.3,121.5z"/>
</g>
</svg>
