<?xml version="1.0" encoding="utf-8"?>
<!-- Generator: Adobe Illustrator 18.1.0, SVG Export Plug-In . SVG Version: 6.00 Build 0)  -->
<svg version="1.1" id="Layer_1" xmlns="http://www.w3.org/2000/svg" xmlns:xlink="http://www.w3.org/1999/xlink" x="0px" y="0px"
	 viewBox="0 0 432 432" enable-background="new 0 0 432 432" xml:space="preserve">
<g>
	<path fill="#CDCCCC" d="M360.3,432H71.7C32.2,432,0,399.8,0,360.3V71.7C0,32.2,32.2,0,71.7,0h288.6C399.8,0,432,32.2,432,71.7
		v288.6C432,399.8,399.8,432,360.3,432z M71.7,9.8C37.6,9.8,9.8,37.6,9.8,71.7v288.6c0,34.1,27.8,61.9,61.9,61.9h288.6
		c34.1,0,61.9-27.8,61.9-61.9V71.7c0-34.1-27.8-61.9-61.9-61.9H71.7z"/>
	<g>
		<g>
			<path fill="#59AA47" d="M254,129.1c-32.4,27.9-69.3,52.1-104,77.5c-5.1,3.7,14.1,5.9,15,5.9c19.1-0.2,38.2-0.9,57.3-1.6
				c-9.7,21.9-19.7,43.6-28.9,65.2c-1.6,3.7,27.6,7.9,31-0.2c9.2-21.9,19.4-43.9,29.2-66c5.7-0.2,11.3-0.3,17-0.4
				c18.1-0.3,18.1-9.7-0.1-9.4c-4.2,0.1-8.5,0.2-12.7,0.3c10.1-23.2,19.5-46.6,26.6-70.3C286.5,123.6,257.7,125.9,254,129.1z
				 M188.8,202.6c17.5-12.6,35.3-25.1,52.8-37.9c-4.7,12.3-9.8,24.5-15.1,36.7C214,201.8,201.4,202.3,188.8,202.6z"/>
		</g>
	</g>
	<g>
		<path fill="#7DC35C" d="M237.4,280.6c7.2,0.5,38.1-3.8,42.3,0c1.6,1.5-0.5,7.2-3.8,12.6c-15.8,25.8-28.8,51.7-35.7,80.9
			c-2.5,10.6,2.8,11.4,5.3,0.9c8.5-35.9,39.4-62.7,49.2-97.3c9-31.5-45.9-15.9-49.8-15.6C240.7,262.3,233.8,280.2,237.4,280.6
			L237.4,280.6z"/>
	</g>
	<g>
		<path fill="#7DC35C" d="M186,294.9c-25.2,34.7-69.6,95.7-121.9,105.2c-19.5,3.5,3.2,5.3,11.2,3.8
			c59.5-10.8,110.2-66.1,139.7-106.7C218.6,292.2,190.7,288.5,186,294.9L186,294.9z"/>
	</g>
	<g>
		<path fill="#7DC35C" d="M262.8,76.6c-4.2,16.9,4.8,33,20,35.9c15.2,2.9,30.9-8.4,35-25.4s-4.8-33-20-35.9
			C282.6,48.3,266.9,59.7,262.8,76.6z"/>
	</g>
	<g>
		<path fill="#FFFFFF" d="M85.1,278.3H31.3V122.3h38.8c15.8,0,27,1.4,37.9,8.7c6.1,4.4,10.8,9.7,14.1,15.7c3.1,6.3,4.6,13,4.6,19.9
			c-0.2,11.2-4.3,21.1-11.8,28.8c16.4,6.5,30.2,22,26.8,45.2C138.2,264.9,118.1,278.3,85.1,278.3z M50.6,259.4h34.5
			c18.1,0,27.4-3.3,33.4-11.8c2.8-3.9,6.9-12,2.8-21.6c-4.5-11.1-15.1-15.8-35.5-15.8H50.6V259.4z M50.6,191.2h20.1
			c5.1,0,9.6-0.3,14.9-1c4.4-0.9,8.4-2.4,11.6-4.3c4.8-3.3,10.2-10.1,10.2-19.2c0.6-9.6-5.2-16.8-10.2-20.1c-6-4-13.1-5.4-27.1-5.4
			H50.6V191.2z"/>
	</g>
	<path fill="#FFFFFF" d="M351.3,125.8c16.3,0,26.1,1.6,36.1,8c5.4,3.9,9.8,8.6,12.8,14.1c2.8,5.7,4.1,11.7,4.1,17.8
		c-0.9,21.1-14.5,34-34.3,37.7c-4.3,0.8-10.2,1.2-17.8,1.2h-25v68.2h-10.6V125.8H351.3z M352.2,194.6c6.1,0,10.9-0.4,15.6-1
		c14.3-3.1,25.8-11.9,25.8-27.9c0-11.1-5.2-19.1-12.6-23.8c-6.9-4.9-16.3-6.1-29.8-6.1h-24.1v58.8H352.2z"/>
	<g>
		<g>
			<path fill="#FFFFFF" d="M365.8,273h-2.6v-19.9h-6.6v-2.4h15.8v2.4h-6.6V273z"/>
		</g>
		<g>
			<path fill="#FFFFFF" d="M385.2,273.1l-7-14.7l-2.9,14.6h-2.6l4.7-23.4l7.9,17.5l8-17.4l4.6,23.4h-2.6l-2.9-14.6L385.2,273.1z"/>
		</g>
	</g>
</g>
</svg>
